<?xml version="1.0" encoding="UTF-8"?>
<svg width="112px" height="46px" viewBox="0 0 112 46" version="1.1" xmlns="http://www.w3.org/2000/svg" xmlns:xlink="http://www.w3.org/1999/xlink">
    <!-- Generator: Sketch 63.1 (92452) - https://sketch.com -->
    <title>logo</title>
    <desc>Created with Sketch.</desc>
    <defs>
        <linearGradient x1="27.8381232%" y1="11.6688048%" x2="69.1792513%" y2="86.1329427%" id="linearGradient-1">
            <stop stop-color="#4D4D56" offset="0%"></stop>
            <stop stop-color="#42424B" offset="100%"></stop>
        </linearGradient>
        <linearGradient x1="200.274628%" y1="97.7973197%" x2="0%" y2="34.0596535%" id="linearGradient-2">
            <stop stop-color="#F8C448" offset="0%"></stop>
            <stop stop-color="#F45B38" offset="17.49597%"></stop>
            <stop stop-color="#E63C51" offset="32.5269622%"></stop>
            <stop stop-color="#D81A6D" offset="49.0601309%"></stop>
            <stop stop-color="#A042A0" offset="67.3298989%"></stop>
            <stop stop-color="#6A69D2" offset="81.8704642%"></stop>
            <stop stop-color="#34C3E9" offset="100%"></stop>
        </linearGradient>
        <linearGradient x1="100%" y1="33.8251945%" x2="-100.464723%" y2="99.3613025%" id="linearGradient-3">
            <stop stop-color="#F8C448" offset="0%"></stop>
            <stop stop-color="#F45B38" offset="17.49597%"></stop>
            <stop stop-color="#E63C51" offset="32.5269622%"></stop>
            <stop stop-color="#D81A6D" offset="49.0601309%"></stop>
            <stop stop-color="#A042A0" offset="67.3298989%"></stop>
            <stop stop-color="#6A69D2" offset="81.8704642%"></stop>
            <stop stop-color="#34C3E9" offset="100%"></stop>
        </linearGradient>
        <linearGradient x1="96.2895863%" y1="50%" x2="7.81740412%" y2="50%" id="linearGradient-4">
            <stop stop-color="#36353E" offset="0%"></stop>
            <stop stop-color="#7D7D88" offset="100%"></stop>
        </linearGradient>
    </defs>
    <g id="Site" stroke="none" stroke-width="1" fill="none" fill-rule="evenodd">
        <g id="Home---1440" transform="translate(-288.000000, -134.000000)">
            <g id="Nav">
                <g id="logo" transform="translate(288.000000, 133.595985)">
                    <g id="mark" transform="translate(23.072374, 23.298096) scale(-1, 1) translate(-23.072374, -23.298096) translate(0.072374, 0.298096)">
                        <polygon id="Path" fill="#EAB0CB" fill-rule="nonzero" opacity="0.5" points="0.210451508 16.4533877 23.0083332 5.02483924 45.806215 16.4449284 23.0083332 27.8734769"></polygon>
                        <polygon id="Path" fill="url(#linearGradient-1)" fill-rule="nonzero" points="23.0083332 45.8580025 0.210451508 34.454832 0.210451508 11.6146537 23.0083332 23.0347428"></polygon>
                        <polygon id="Path" fill="url(#linearGradient-2)" points="23.0083332 27.8142616 0.210451508 16.3941725 0.210451508 19.659472 23.0083332 31.0795612"></polygon>
                        <polygon id="Path" fill="#000000" fill-rule="nonzero" points="23.0083332 45.8580025 45.7977556 34.454832 45.7977556 11.6146537 23.0083332 23.0347428"></polygon>
                        <polygon id="Path" fill="url(#linearGradient-3)" opacity="0.5" points="23.0083332 31.0795612 45.7977556 19.659472 45.7977556 16.3941725 23.0083332 27.8142616"></polygon>
                        <polygon id="Path" fill="url(#linearGradient-4)" fill-rule="nonzero" points="0.210451508 11.6146537 23.0083332 0.194564482 45.806215 11.6061943 23.0083332 23.0347428"></polygon>
                    </g>
                    <path d="M81.5264336,17.6929219 L81.5264336,20.7540421 L85.5375566,20.7540421 L85.5375566,22.8387705 L81.5264336,22.8387705 L81.5264336,30.4124042 C81.5264336,31.1689786 81.7152371,31.7495359 82.0939324,32.154076 C82.4718116,32.5588882 83.0129214,32.7610223 83.7167179,32.7610223 C84.4907036,32.7610223 85.1504278,32.5412049 85.6958904,32.1012981 L86.4875595,33.9221368 C86.1181139,34.2388044 85.6605238,34.48093 85.1153332,34.6476974 C84.5698705,34.8147369 84.0069965,34.8985286 83.4264393,34.8985286 C82.0188463,34.8985286 80.928193,34.5203775 80.1542073,33.763803 C79.3799496,33.0075007 78.9930927,31.925553 78.9930927,30.51796 L78.9930927,22.8387705 L76.6180857,22.8387705 L76.6180857,20.7540421 L78.9930927,20.7540421 L78.9930927,17.6929219 L81.5264336,17.6929219 Z M104.010824,20.6221517 C105.400189,20.6221517 106.645095,20.9254888 107.744726,21.532435 C108.844085,22.1393813 109.706216,22.9838282 110.330845,24.0657759 C110.955203,25.1477236 111.267517,26.3749466 111.267517,27.7471729 C111.267517,29.1193992 110.955203,30.3463501 110.330845,31.4282978 C109.706216,32.5102455 108.844085,33.3593173 107.744726,33.9749692 C106.645095,34.5908931 105.400189,34.898583 104.010824,34.898583 C102.620642,34.898583 101.371655,34.5908931 100.263318,33.9749692 C99.1549815,33.3593173 98.2882263,32.5102455 97.6641408,31.4282978 C97.0395112,30.3463501 96.7274685,29.1193992 96.7274685,27.7471729 C96.7274685,26.3749466 97.0395112,25.1477236 97.6641408,24.0657759 C98.2882263,22.9838282 99.1549815,22.1393813 100.263318,21.532435 C101.371655,20.9254888 102.620642,20.6221517 104.010824,20.6221517 Z M57.7504093,20.7539605 L62.5532013,31.9692716 L67.4615493,20.7539605 L69.9421122,20.7539605 L63.8198718,34.7401132 L61.233753,34.7401132 L55.1115125,20.7539605 L57.7504093,20.7539605 Z M74.3225448,20.7538789 L74.3225448,34.7400316 L71.7892039,34.7400316 L71.7892039,20.7538789 L74.3225448,20.7538789 Z M96.0137318,20.6220973 L96.0137318,23.0762712 C95.8725373,23.05886 95.6791089,23.0498823 95.4331746,23.0498823 C94.0609483,23.0498823 92.9830814,23.4590473 92.20039,24.2768332 C91.4174267,25.0948912 91.026217,26.2606307 91.026217,27.7735074 L91.026217,34.7401948 L88.4928761,34.7401948 L88.4928761,20.7540421 L90.9206611,20.7540421 L90.9206611,23.1026602 C91.3602959,22.2935799 92.0113144,21.677656 92.8734447,21.2554325 C93.7350309,20.833209 94.782156,20.6220973 96.0137318,20.6220973 Z M104.010824,22.838825 C103.113327,22.838825 102.308599,23.0412311 101.596097,23.4457712 C100.883595,23.8505834 100.320449,24.4267879 99.9072031,25.1741125 C99.4936852,25.9222534 99.2869263,26.7797588 99.2869263,27.7471729 C99.2869263,28.714859 99.4936852,29.5726365 99.9072031,30.3199612 C100.320449,31.068102 100.883595,31.6483872 101.596097,32.061633 C102.308599,32.4754229 103.113327,32.6819098 104.010824,32.6819098 C104.907776,32.6819098 105.712776,32.4754229 106.425278,32.061633 C107.13778,31.6483872 107.696029,31.068102 108.100841,30.3199612 C108.505382,29.5726365 108.707788,28.714859 108.707788,27.7471729 C108.707788,26.7797588 108.505382,25.9222534 108.100841,25.1741125 C107.696029,24.4267879 107.13778,23.8505834 106.425278,23.4457712 C105.712776,23.0412311 104.907776,22.838825 104.010824,22.838825 Z M73.0558743,14.7635833 C73.548015,14.7635833 73.95718,14.9178363 74.2830973,15.2255262 C74.6081985,15.5334882 74.7711572,15.9162643 74.7711572,16.3733103 C74.7711572,16.8483117 74.6081985,17.2487711 74.2830973,17.5741443 C73.95718,17.8997896 73.548015,18.0622042 73.0558743,18.0622042 C72.5631896,18.0622042 72.1540246,17.9038704 71.8289234,17.5874749 C71.503006,17.2708072 71.3405914,16.8839504 71.3405914,16.4263603 C71.3405914,15.9687702 71.503006,15.5775605 71.8289234,15.2519152 C72.1540246,14.926542 72.5631896,14.7635833 73.0558743,14.7635833 Z" id="Combined-Shape" fill="#46464F"></path>
                </g>
            </g>
        </g>
    </g>
</svg>